%YAML 1.1
%TAG !u! tag:unity3d.com,2011:
--- !u!114 &11400000
MonoBehaviour:
  m_ObjectHideFlags: 0
  m_PrefabParentObject: {fileID: 0}
  m_PrefabInternal: {fileID: 0}
  m_GameObject: {fileID: 0}
  m_Enabled: 1
  m_EditorHideFlags: 0
  m_Script: {fileID: 11500000, guid: a5372ba9ebcff47479ad7e394313e801, type: 3}
  m_Name: Engine_lvl2
  m_EditorClassIdentifier: 
  FixName: engine
  ModuleDisplayName: Engine
  Icon: {fileID: 21300000, guid: dc127d5cadf06431389b016a4ae60f6b, type: 3}
  list:
  - active: 1
    problem: {fileID: 11400000, guid: 9e3a85b9d02bfb5419648c3c9075882c, type: 2}
  - active: 1
    problem: {fileID: 11400000, guid: 11c6eb48353b57b40b0c46ebfe75cd77, type: 2}
