%YAML 1.1
%TAG !u! tag:unity3d.com,2011:
--- !u!114 &11400000
MonoBehaviour:
  m_ObjectHideFlags: 0
  m_PrefabParentObject: {fileID: 0}
  m_PrefabInternal: {fileID: 0}
  m_GameObject: {fileID: 0}
  m_Enabled: 1
  m_EditorHideFlags: 0
  m_Script: {fileID: 11500000, guid: a5372ba9ebcff47479ad7e394313e801, type: 3}
  m_Name: Wide Angle Camera 3
  m_EditorClassIdentifier: 
  FixName: wide angle camera
  ModuleDisplayName: Wide Angle Camera
  Icon: {fileID: 21300000, guid: cea216bb72198471a87620bb5ff409cd, type: 3}
  list:
  - active: 1
    problem: {fileID: 11400000, guid: 779e245d1f3b74b68a48b99bb77f0e63, type: 2}
  - active: 1
    problem: {fileID: 11400000, guid: 27ab7040448bf4b869d2719effbc413b, type: 2}
  - active: 1
    problem: {fileID: 11400000, guid: 9e3a85b9d02bfb5419648c3c9075882c, type: 2}
