%YAML 1.1
%TAG !u! tag:unity3d.com,2011:
--- !u!114 &11400000
MonoBehaviour:
  m_ObjectHideFlags: 0
  m_PrefabParentObject: {fileID: 0}
  m_PrefabInternal: {fileID: 0}
  m_GameObject: {fileID: 0}
  m_Enabled: 1
  m_EditorHideFlags: 0
  m_Script: {fileID: 11500000, guid: 8b1a2b2e8ccc7d6498d4f58471f50f65, type: 3}
  m_Name: TutorialHelpDialog
  m_EditorClassIdentifier: 
  Data:
  - ItemName: 
    Message: Enter "extinguish engine"
    DefaultAnswer: 
    Commands: []
