%YAML 1.1
%TAG !u! tag:unity3d.com,2011:
--- !u!114 &11400000
MonoBehaviour:
  m_ObjectHideFlags: 0
  m_PrefabParentObject: {fileID: 0}
  m_PrefabInternal: {fileID: 0}
  m_GameObject: {fileID: 0}
  m_Enabled: 1
  m_EditorHideFlags: 0
  m_Script: {fileID: 11500000, guid: b3e178e60e2b0944f9dd871f29fbd91f, type: 3}
  m_Name: Ship_lvl4
  m_EditorClassIdentifier: 
  ShipHealth: 150
  MaxTroubleOnModule: 3
  modules:
  - {fileID: 11400000, guid: 945536ca46620764ba28ee0c24eb038e, type: 2}
  - {fileID: 11400000, guid: f9b689b2461147545974b7b570c48703, type: 2}
  - {fileID: 11400000, guid: 501b33b553f0a044f9f7cd73008eaa11, type: 2}
  - {fileID: 11400000, guid: 0af23356b2176614d8b369da11b2fa1d, type: 2}
  - {fileID: 11400000, guid: c183e3d640ec1b64da32bff2dc4767b6, type: 2}
  - {fileID: 11400000, guid: 92d4d33bfb72f4853b7a207bab704632, type: 2}
  - {fileID: 11400000, guid: 979ec719cfade4f32aafd18b73b04845, type: 2}
  - {fileID: 11400000, guid: 7a041477d213b443689ee15fa0d6a583, type: 2}
