%YAML 1.1
%TAG !u! tag:unity3d.com,2011:
--- !u!114 &11400000
MonoBehaviour:
  m_ObjectHideFlags: 0
  m_PrefabParentObject: {fileID: 0}
  m_PrefabInternal: {fileID: 0}
  m_GameObject: {fileID: 0}
  m_Enabled: 1
  m_EditorHideFlags: 0
  m_Script: {fileID: 11500000, guid: 5281daddbba6f874a867525d60539efb, type: 3}
  m_Name: Short - Circuit
  m_EditorClassIdentifier: 
  FixWord: check wirings for
  ProblemColor: {r: 1, g: 1, b: 1, a: 1}
  icon: {fileID: 21300000, guid: 801ced51ebdce4600b61f78c0bc8c084, type: 3}
